iPhone 13,Mobile Phones
iPhone 13 Pro,Mobile Phones
iPhone 13 Pro Max,Mobile Phones
Google Pixel 6 Pro,Mobile Phones
Google Pixel 8 Pro,Mobile Phones
Google Pixel 4,Mobile Phones
Samsung Galaxy S21,Mobile Phones
Samsung Galaxy S21 Ultra,Mobile Phones
Sony Xperia 5 III,Mobile Phones
Google Pixel 6,Mobile Phones
OnePlus 9,Mobile Phones
Sony Xperia 5 III,Mobile Phones
Nokia 8.3 5G,Mobile Phones
LG Velvet,Mobile Phones
Asus ROG Phone 5,Mobile Phones
Xiaomi Mi 11,Mobile Phones
Oppo Find X3 Pro,Mobile Phones
Vivo X60 Pro,Mobile Phones
Realme GT,Mobile Phones
BlackBerry Key2,Mobile Phones
Microsoft Surface Duo,Mobile Phones
Apple MacBook Pro,Laptops
Dell XPS 13,Laptops
HP Spectre x360,Laptops
Lenovo ThinkPad X1 Carbon,Laptops
Asus ZenBook 13,Laptops
Acer Swift 3,Laptops
Microsoft Surface Laptop 4,Laptops
Razer Blade 15,Laptops
Samsung Galaxy Book Pro,Laptops
LG Gram 17,Laptops
Google Pixelbook Go,Laptops
Huawei MateBook X Pro,Laptops
MSI GS66 Stealth,Laptops
Alienware m15 R4,Laptops
Apple iPad Pro,Tablets
Samsung Galaxy Tab S7,Tablets
Microsoft Surface Pro 7,Tablets
Amazon Fire HD 10,Tablets
Lenovo Tab P11 Pro,Tablets
Huawei MatePad Pro,Tablets
Asus ROG Flow X13,Tablets
Google Pixel Slate,Tablets
Sony Xperia Z4 Tablet,Tablets
Nokia T20,Tablets
Dell Inspiron 15,Laptops
HP Envy 13,Laptops
Asus VivoBook 15,Laptops
Acer Aspire 5,Laptops
Lenovo IdeaPad 3,Laptops
Microsoft Surface Go 2,Tablets
Samsung Galaxy Book Flex,Laptops
LG UltraGear 38GN950,Monitors
Dell UltraSharp U2720Q,Monitors
Asus ProArt PA32UCX,Monitors
Acer Predator X27,Monitors
Samsung Odyssey G9,Monitors
LG 34WN80C-B,Monitors
BenQ PD3220U,Monitors
ViewSonic VP2768,Monitors
Philips Brilliance 272P7VUBNB,Monitors
MSI Optix MAG272CQR,Monitors
AOC Agon AG273QCG,Monitors
Apple Watch Series 6,Smartwatches
Samsung Galaxy Watch 4,Smartwatches
Fitbit Versa 3,Smartwatches
Garmin Forerunner 945,Smartwatches
Fossil Gen 5,Smartwatches
Amazfit Bip U Pro,Smartwatches
Withings Steel HR,Smartwatches
Huawei Watch GT 2,Smartwatches
TicWatch Pro 3,Smartwatches
Suunto 7,Smartwatches
Sony WH-1000XM4,Headphones
Bose Noise Cancelling Headphones 700,Headphones
Apple AirPods Max,Headphones
Sennheiser Momentum 3,Headphones
Jabra Elite 85h,Headphones
Microsoft Surface Headphones 2,Headphones
Sony WF-1000XM4,Earbuds
Apple AirPods Pro,Earbuds
Samsung Galaxy Buds Pro,Earbuds
Jabra Elite 75t,Earbuds
Anker Soundcore Liberty Air 2 Pro,Earbuds
Google Pixel Buds 2,Earbuds
Sony PlayStation 5,Game Consoles
Microsoft Xbox Series X,Game Consoles
Nintendo Switch,Game Consoles
Sony PlayStation 4,Game Consoles
Microsoft Xbox One X,Game Consoles
Nintendo Switch Lite,Game Consoles
Razer Kishi,Game Controllers
Logitech G Pro,Game Controllers
SteelSeries Stratus Duo,Game Controllers
8BitDo SN30 Pro,Game Controllers
Astro C40 TR,Game Controllers
Samsung QN90A,QLED TVs
LG C1 OLED,OLED TVs
Sony A90J OLED,OLED TVs
Vizio P-Series Quantum,XLED TVs
TCL 6-Series,Roku TVs
Hisense U8G,ULED TVs
Samsung Frame TV,Smart TVs
LG NanoCell 90 Series,NanoCell TVs
Sony X900H,LED TVs
Vizio OLED,OLED TVs
Canon EOS R5,Cameras
Nikon Z6 II,Cameras
Sony Alpha A7 III,Cameras
Fujifilm X-T4,Cameras
Panasonic Lumix GH5,Cameras
Olympus OM-D E-M1 Mark III,Cameras
Leica Q2,Cameras
Hasselblad X1D II 50C,Cameras
Pentax K-1 Mark II,Cameras
Sigma fp L,Cameras
DJI Mavic Air 2,Drones
Parrot Anafi,Drones
Skydio 2,Drones
Autel Robotics Evo II,Drones
PowerVision PowerEgg X,Drones
Holy Stone HS720,Drones
Ryze Tello,Drones
Hubsan Zino 2,Drones
Yuneec Typhoon H Plus,Drones
DJI Phantom 4 Pro V2.0,Drones
Nest Learning Thermostat,Smart Home
Amazon Echo Show 10,Smart Home
Google Nest Hub Max,Smart Home
Apple HomePod mini,Smart Home
Samsung SmartThings Hub,Smart Home
Ring Video Doorbell Pro,Smart Home
Arlo Pro 3,Smart Home
August Smart Lock Pro,Smart Home
Ecobee SmartThermostat,Smart Home
Wyze Cam Pan,Smart Home
Dyson V11 Absolute,Vacuums
iRobot Roomba s9+,Vacuums
Shark IQ Robot Self-Empty,XVacuums
Eufy RoboVac 11S,Vacuums
Neato Botvac D7,Vacuums
Bissell CleanView Swivel Pet Upright,Vacuums
Hoover Linx Cordless Stick Vacuum,Vacuums
Miele Complete C3 Cat & Dog,Vacuums
Black+Decker Dustbuster Handheld Vacuum,Vacuums
Tineco A11 Hero,Vacuums
Sony X900H,LED TVs
Vizio M-Series Quantum,XLED TVs
Samsung TU8000,LED TVs
LG UN7300,LED TVs
Hisense H8G,XLED TVs
TCL 5-Series,Roku TVs
Vizio V-Series,Smart TVs
Samsung The Terrace,QLED TVs
LG GX OLED,OLED TVs
Sony Z8H,8K TVs
Alienware AW3420DW,Monitors
Razer Raptor 27,Monitors
AOC CU34G2X,Monitors
Gigabyte Aorus FI27Q-X,Monitors
Dell S2721DGF,Monitors
Samsung Odyssey G7,Monitors
Asus TUF Gaming VG27AQ,Monitors
BenQ EW3270U,Monitors
Philips 328E1CA,Monitors
ViewSonic VX3276-4K-MHD,Monitors
HyperX Cloud II,Headphones
Corsair Virtuoso RGB Wireless SE,Headphones
SteelSeries Arctis 7,Headphones
Razer BlackShark V2 Pro,Headphones
Logitech G Pro X,Headphones
Beyerdynamic DT 990 Pro,Headphones
AKG K371,Headphones
Audio-Technica ATH-M50x,Headphones
Sennheiser HD 560S,Headphones
Shure AONIC 50,Headphones
Logitech MX Master 3,Computer Accessories
Razer DeathAdder V2,Computer Accessories
Corsair K95 RGB Platinum,Computer Accessories
SteelSeries Apex Pro,Computer Accessories
HyperX Alloy Origins,Computer Accessories
Logitech G502 Hero,Computer Accessories
Razer Huntsman Elite,Computer Accessories
Cooler Master MM710,Computer Accessories
Glorious Model O,Computer Accessories
ASUS ROG Gladius II,Computer Accessories
Samsung 970 Evo Plus,Storage Devices
WD Black SN850,Storage Devices
Seagate FireCuda 520,Storage Devices
Crucial P5 Plus,Storage Devices
Corsair MP600 Pro LPX,Storage Devices
Kingston KC2500,Storage Devices
Sabrent Rocket 4 Plus,Storage Devices
Adata XPG SX8200 Pro,Storage Devices
SK hynix Gold P31,Storage Devices
Lexar NM610,Storage Devices
Synology DiskStation DS920+,Storage Devices
QNAP TS-453D,Storage Devices
Asustor AS5304T,Storage Devices
Western Digital My Cloud EX2 Ultra,Storage Devices
TerraMaster F4-210,Storage Devices
Netgear ReadyNAS RN422,Storage Devices
Buffalo LinkStation 520,Storage Devices
Seagate IronWolf 110,Storage Devices
Drobo 5N2,Storage Devices
Promise Apollo Cloud 2 Duo,Storage Devices